{

    "paging": 

{

    "page": 1,
    "total": 5561,
    "page_size": 20,
    "pages": 279

},
"loans":
[

{

    "id": 835035,
    "name": "Thong's Group",
    "description": 

{

    "languages": 

    [
        "en"
    ]

},
"status": "fundraising",
"funded_amount": 0,
"basket_amount": 0,
"image":
{

    "id": 1807115,
    "template_id": 1

},
"activity": "Farming",
"sector": "Agriculture",
"theme": "Vulnerable Groups",
"use": "to buy organic fertilizer",
"location":
{

    "country_code": "VN",
    "country": "Vietnam",
    "town": "Mai Sơn - Sơn La",
    "geo": 

        {
            "level": "country",
            "pairs": "16.166667 107.833333",
            "type": "point"
        }
    },
    "partner_id": 363,
    "posted_date": "2015-02-02T03:30:02Z",
    "planned_expiration_date": "2015-03-04T03:30:02Z",
    "loan_amount": 2975,
    "borrower_count": 4,
    "lender_count": 0,
    "bonus_credit_eligibility": false,
    "tags": [ ]

},
{

    "id": 832702,
    "name": "Veronica Del Carmen",
    "description": 

{

    "languages": 

    [
        "es",
        "en"
    ]

},
"status": "fundraising",
"funded_amount": 0,
"basket_amount": 0,
"image":
{

    "id": 1802842,
    "template_id": 1

},
"activity": "Food Production/Sales",
"sector": "Food",
"use": "to buy food products such as rice, beef, chicken, vegetables, plantains, tortillas, condiments, beans, etc., ",
"location":
{

    "country_code": "NI",
    "country": "Nicaragua",
    "town": "Leon",
    "geo": 

        {
            "level": "town",
            "pairs": "12.435556 -86.879444",
            "type": "point"
        }
    },
    "partner_id": 96,
    "posted_date": "2015-02-02T03:10:02Z",
    "planned_expiration_date": "2015-03-04T03:10:02Z",
    "loan_amount": 1400,
    "borrower_count": 1,
    "lender_count": 0,
    "bonus_credit_eligibility": false,
    "tags": [ ]

},
{

    "id": 835032,
    "name": "Thuom's Group",
    "description": 

{

    "languages": 

    [
        "en"
    ]

},
"status": "fundraising",
"funded_amount": 0,
"basket_amount": 0,
"image":
{

    "id": 1807114,
    "template_id": 1

},
"activity": "Primary/secondary school costs",
"sector": "Education",
"use": "to invest in her children’s education",
"location":
{

    "country_code": "VN",
    "country": "Vietnam",
    "town": "Mai Sơn - Sơn La",
    "geo": 

        {
            "level": "country",
            "pairs": "16.166667 107.833333",
            "type": "point"
        }
    },
    "partner_id": 363,
    "posted_date": "2015-02-02T03:10:02Z",
    "planned_expiration_date": "2015-03-04T03:10:02Z",
    "loan_amount": 3200,
    "borrower_count": 4,
    "lender_count": 0,
    "bonus_credit_eligibility": false,
    "tags": [ ]

},
{

    "id": 832221,
    "name": "Nicolasa",
    "description": 

{

    "languages": 

    [
        "es",
        "en"
    ]

},
"status": "fundraising",
"funded_amount": 0,
"basket_amount": 0,
"image":
{

    "id": 1802038,
    "template_id": 1

},
"activity": "General Store",
"sector": "Retail",
"theme": "Underfunded Areas",
"use": "to buy a larger quantity of products such as rice, sugar, and cooking oil, among other things, so she can increase the stock in her store",
"location":
{

    "country_code": "PE",
    "country": "Peru",
    "town": "Pucará - Jaén - Cajamarca",
    "geo": 

        {
            "level": "country",
            "pairs": "-10 -76",
            "type": "point"
        }
    },
    "partner_id": 143,
    "posted_date": "2015-02-02T02:50:04Z",
    "planned_expiration_date": "2015-03-04T02:50:04Z",
    "loan_amount": 350,
    "borrower_count": 1,
    "lender_count": 0,
    "bonus_credit_eligibility": true,
    "tags": [ ]

},
{

    "id": 834288,
    "name": "Maria Jenivera",
    "description": 

{

    "languages": 

    [
        "es",
        "en"
    ]

},
"status": "fundraising",
"funded_amount": 25,
"basket_amount": 0,
"image":
{

    "id": 1805860,
    "template_id": 1

},
"activity": "Sewing",
"sector": "Services",
"use": "to buy a post-bed sewing machine. ",
"location":
{

    "country_code": "CO",
    "country": "Colombia",
    "town": "Medellín",
    "geo": 

    {
        "level": "country",
        "pairs": "4 -72",
        "type": "point"
    }

},
"partner_id": 177,
"posted_date": "2015-02-02T02:50:04Z",
"planned_expiration_date": "2015-03-04T02:50:04Z",
"loan_amount": 850,
"borrower_count": 1,
"lender_count": 1,
"bonus_credit_eligibility": true,
"tags":
[

{

    "name": "#WomanOwnedBiz"

},
{

    "name": "#Fabrics"

},

        {
            "name": "#IncomeProducingDurableAsset"
        }
    ]

},
{

    "id": 835027,
    "name": "Kien's Group",
    "description": 

{

    "languages": 

    [
        "en"
    ]

},
"status": "fundraising",
"funded_amount": 0,
"basket_amount": 0,
"image":
{

    "id": 1807109,
    "template_id": 1

},
"activity": "Personal Housing Expenses",
"sector": "Housing",
"theme": "Vulnerable Groups",
"use": " to buy materials for sanitation work",
"location":
{

    "country_code": "VN",
    "country": "Vietnam",
    "town": "Mai Sơn - Sơn La",
    "geo": 

        {
            "level": "country",
            "pairs": "16.166667 107.833333",
            "type": "point"
        }
    },
    "partner_id": 363,
    "posted_date": "2015-02-02T02:50:04Z",
    "planned_expiration_date": "2015-03-04T02:50:04Z",
    "loan_amount": 3300,
    "borrower_count": 6,
    "lender_count": 0,
    "bonus_credit_eligibility": false,
    "tags": [ ]

},
{

    "id": 835028,
    "name": "La's Group",
    "description": 

{

    "languages": 

    [
        "en"
    ]

},
"status": "fundraising",
"funded_amount": 0,
"basket_amount": 0,
"image":
{

    "id": 1807110,
    "template_id": 1

},
"activity": "Farming",
"sector": "Agriculture",
"theme": "Vulnerable Groups",
"use": "to buy fertilizer for the coffee field",
"location":
{

    "country_code": "VN",
    "country": "Vietnam",
    "town": "Mai Sơn - Sơn La",
    "geo": 

        {
            "level": "country",
            "pairs": "16.166667 107.833333",
            "type": "point"
        }
    },
    "partner_id": 363,
    "posted_date": "2015-02-02T02:50:04Z",
    "planned_expiration_date": "2015-03-04T02:50:04Z",
    "loan_amount": 2250,
    "borrower_count": 4,
    "lender_count": 0,
    "bonus_credit_eligibility": false,
    "tags": [ ]

},
{

    "id": 832408,
    "name": "Gulnara",
    "description": 

{

    "languages": 

    [
        "ru",
        "en"
    ]

},
"status": "fundraising",
"funded_amount": 0,
"basket_amount": 0,
"image":
{

    "id": 1802337,
    "template_id": 1

},
"activity": "Used Clothing",
"sector": "Clothing",
"theme": "Vulnerable Groups",
"use": "stock up on clothing for resale to increase the variety of her shop's offering and her profit",
"location":
{

    "country_code": "KG",
    "country": "Kyrgyzstan",
    "town": "Toktogul",
    "geo": 

    {
        "level": "country",
        "pairs": "41 75",
        "type": "point"
    }

},
"partner_id": 171,
"posted_date": "2015-02-02T02:30:02Z",
"planned_expiration_date": "2015-03-04T02:30:02Z",
"loan_amount": 1675,
"borrower_count": 1,
"lender_count": 0,
"bonus_credit_eligibility": true,
"tags":
[

{

    "name": "#WomanOwnedBiz"

},
{

    "name": "#Widowed"

},

        {
            "name": "#Elderly"
        }
    ]

},
{

    "id": 834281,
    "name": "Salustiano Manuel",
    "description": 

{

    "languages": 

    [
        "es",
        "en"
    ]

},
"status": "fundraising",
"funded_amount": 0,
"basket_amount": 0,
"image":
{

    "id": 1805852,
    "template_id": 1

},
"activity": "Food Stall",
"sector": "Food",
"use": "to buy 24 coffee thermoses and a cart, so that he might be able to create two jobs.",
"location":
{

    "country_code": "CO",
    "country": "Colombia",
    "town": "Sincelejo",
    "geo": 

    {
        "level": "country",
        "pairs": "4 -72",
        "type": "point"
    }

},
"partner_id": 177,
"posted_date": "2015-02-02T01:50:02Z",
"planned_expiration_date": "2015-03-04T01:50:01Z",
"loan_amount": 225,
"borrower_count": 1,
"lender_count": 0,
"bonus_credit_eligibility": true,
"tags":
[

{

    "name": "volunteer_pick"

},

        {
            "name": "volunteer_like"
        }
    ]

},
{

    "id": 834299,
    "name": "Paola Marivel",
    "description": 

{

    "languages": 

    [
        "es",
        "en"
    ]

},
"status": "fundraising",
"funded_amount": 0,
"basket_amount": 25,
"image":
{

    "id": 1805882,
    "template_id": 1

},
"activity": "Clothing Sales",
"sector": "Clothing",
"theme": "Vulnerable Groups",
"use": "to buy clothing to sell",
"location":
{

    "country_code": "EC",
    "country": "Ecuador",
    "town": "San Gabriel",
    "geo": 

        {
            "level": "country",
            "pairs": "-2 -77.5",
            "type": "point"
        }
    },
    "partner_id": 188,
    "posted_date": "2015-02-02T01:30:02Z",
    "planned_expiration_date": "2015-03-04T01:30:02Z",
    "loan_amount": 500,
    "borrower_count": 1,
    "lender_count": 1,
    "bonus_credit_eligibility": true,
    "tags": [ ]

},
{

    "id": 834291,
    "name": "Elvia Maria",
    "description": 

{

    "languages": 

    [
        "es",
        "en"
    ]

},
"status": "fundraising",
"funded_amount": 0,
"basket_amount": 0,
"image":
{

    "id": 1805865,
    "template_id": 1

},
"activity": "Clothing Sales",
"sector": "Clothing",
"use": "to buy an assortment of infant clothing. She is a very hardworking woman.",
"location":
{

    "country_code": "CO",
    "country": "Colombia",
    "town": "Santa Fe de Antioquia",
    "geo": 

        {
            "level": "country",
            "pairs": "4 -72",
            "type": "point"
        }
    },
    "partner_id": 177,
    "posted_date": "2015-02-02T01:10:03Z",
    "planned_expiration_date": "2015-03-04T01:10:03Z",
    "loan_amount": 300,
    "borrower_count": 1,
    "lender_count": 0,
    "bonus_credit_eligibility": true,
    "tags": [ ]

},
{

    "id": 834297,
    "name": "Jose Nery",
    "description": 

{

    "languages": 

    [
        "es",
        "en"
    ]

},
"status": "fundraising",
"funded_amount": 0,
"basket_amount": 0,
"image":
{

    "id": 1805875,
    "template_id": 1

},
"activity": "Agriculture",
"sector": "Agriculture",
"theme": "Rural Exclusion",
"use": "to buy agricultural supplies",
"location":
{

    "country_code": "SV",
    "country": "El Salvador",
    "geo": 

        {
            "level": "country",
            "pairs": "13.833333 -88.916667",
            "type": "point"
        }
    },
    "partner_id": 81,
    "posted_date": "2015-02-02T01:10:03Z",
    "planned_expiration_date": "2015-03-04T01:10:03Z",
    "loan_amount": 600,
    "borrower_count": 1,
    "lender_count": 0,
    "bonus_credit_eligibility": true,
    "tags": [ ]

},
{

    "id": 834298,
    "name": "Anonymous",
    "description": 

{

    "languages": 

    [
        "es",
        "en"
    ]

},
"status": "fundraising",
"funded_amount": 25,
"basket_amount": 0,
"image":
{

    "id": 1805876,
    "template_id": 1

},
"activity": "Agriculture",
"sector": "Agriculture",
"theme": "Vulnerable Groups",
"use": "to buy agricultural supplies and to improve her land",
"location":
{

    "country_code": "SV",
    "country": "El Salvador",
    "geo": 

        {
            "level": "country",
            "pairs": "13.833333 -88.916667",
            "type": "point"
        }
    },
    "partner_id": 81,
    "posted_date": "2015-02-02T01:10:03Z",
    "planned_expiration_date": "2015-03-04T01:10:03Z",
    "loan_amount": 500,
    "borrower_count": 1,
    "lender_count": 1,
    "bonus_credit_eligibility": true,
    "tags": [ ]

},
{

    "id": 834292,
    "name": "Francisco Yaroc",
    "description": 

{

    "languages": 

    [
        "es",
        "en"
    ]

},
"status": "fundraising",
"funded_amount": 0,
"basket_amount": 0,
"image":
{

    "id": 1805864,
    "template_id": 1

},
"activity": "Vehicle",
"sector": "Personal Use",
"use": "to buy a motorcycle.",
"location":
{

    "country_code": "NI",
    "country": "Nicaragua",
    "town": "Leon",
    "geo": 

        {
            "level": "town",
            "pairs": "12.435556 -86.879444",
            "type": "point"
        }
    },
    "partner_id": 74,
    "posted_date": "2015-02-02T01:10:02Z",
    "planned_expiration_date": "2015-03-04T01:10:02Z",
    "loan_amount": 725,
    "borrower_count": 1,
    "lender_count": 0,
    "bonus_credit_eligibility": false,
    "tags": [ ]

},
{

    "id": 834295,
    "name": "Carlos De Jesus",
    "description": 

{

    "languages": 

    [
        "es",
        "en"
    ]

},
"status": "fundraising",
"funded_amount": 0,
"basket_amount": 0,
"image":
{

    "id": 1805870,
    "template_id": 1

},
"activity": "Agriculture",
"sector": "Agriculture",
"theme": "Rural Exclusion",
"use": "buy fertilizer, insecticide, herbicide, seeds, and compost",
"location":
{

    "country_code": "SV",
    "country": "El Salvador",
    "geo": 

        {
            "level": "country",
            "pairs": "13.833333 -88.916667",
            "type": "point"
        }
    },
    "partner_id": 81,
    "posted_date": "2015-02-02T00:50:02Z",
    "planned_expiration_date": "2015-03-04T00:50:02Z",
    "loan_amount": 850,
    "borrower_count": 1,
    "lender_count": 0,
    "bonus_credit_eligibility": true,
    "tags": [ ]

},
{

    "id": 834296,
    "name": "Alvaro Alexander",
    "description": 

{

    "languages": 

    [
        "es",
        "en"
    ]

},
"status": "fundraising",
"funded_amount": 0,
"basket_amount": 0,
"image":
{

    "id": 1805872,
    "template_id": 1

},
"activity": "Personal Housing Expenses",
"sector": "Housing",
"theme": "Vulnerable Groups",
"use": "to buy doors and window bars, and to pay for labor.",
"location":
{

    "country_code": "SV",
    "country": "El Salvador",
    "geo": 

        {
            "level": "country",
            "pairs": "13.833333 -88.916667",
            "type": "point"
        }
    },
    "partner_id": 81,
    "posted_date": "2015-02-02T00:50:02Z",
    "planned_expiration_date": "2015-03-04T00:50:02Z",
    "loan_amount": 1000,
    "borrower_count": 1,
    "lender_count": 0,
    "bonus_credit_eligibility": false,
    "tags": [ ]

},
{

    "id": 834293,
    "name": "Noe",
    "description": 

{

    "languages": 

    [
        "es",
        "en"
    ]

},
"status": "fundraising",
"funded_amount": 0,
"basket_amount": 0,
"image":
{

    "id": 1805868,
    "template_id": 1

},
"activity": "Livestock",
"sector": "Agriculture",
"theme": "Rural Exclusion",
"use": "buy two heifers",
"location":
{

    "country_code": "SV",
    "country": "El Salvador",
    "town": "El Transito",
    "geo": 

        {
            "level": "country",
            "pairs": "13.833333 -88.916667",
            "type": "point"
        }
    },
    "partner_id": 199,
    "posted_date": "2015-02-02T00:30:02Z",
    "planned_expiration_date": "2015-03-04T00:30:02Z",
    "loan_amount": 1000,
    "borrower_count": 1,
    "lender_count": 0,
    "bonus_credit_eligibility": true,
    "tags": [ ]

},
{

    "id": 834294,
    "name": "Anonymous",
    "description": 

{

    "languages": 

    [
        "es",
        "en"
    ]

},
"status": "fundraising",
"funded_amount": 0,
"basket_amount": 0,
"image":
{

    "id": 1805867,
    "template_id": 1

},
"activity": "Food Stall",
"sector": "Food",
"theme": "Vulnerable Groups",
"use": "buy more honey in bulk",
"location":
{

    "country_code": "SV",
    "country": "El Salvador",
    "geo": 

        {
            "level": "country",
            "pairs": "13.833333 -88.916667",
            "type": "point"
        }
    },
    "partner_id": 81,
    "posted_date": "2015-02-02T00:30:02Z",
    "planned_expiration_date": "2015-03-04T00:30:02Z",
    "loan_amount": 1000,
    "borrower_count": 1,
    "lender_count": 0,
    "bonus_credit_eligibility": true,
    "tags": [ ]

},
{

    "id": 834290,
    "name": "Anonymous",
    "description": 

{

    "languages": 

    [
        "es",
        "en"
    ]

},
"status": "fundraising",
"funded_amount": 0,
"basket_amount": 0,
"image":
{

    "id": 1805863,
    "template_id": 1

},
"activity": "Personal Products Sales",
"sector": "Retail",
"theme": "Vulnerable Groups",
"use": "to buy perfumes, lotions, creams, shampoo, deodorant, etc. on wholesale.",
"location":
{

    "country_code": "SV",
    "country": "El Salvador",
    "geo": 

        {
            "level": "country",
            "pairs": "13.833333 -88.916667",
            "type": "point"
        }
    },
    "partner_id": 81,
    "posted_date": "2015-02-01T23:50:02Z",
    "planned_expiration_date": "2015-03-03T23:50:02Z",
    "loan_amount": 1200,
    "borrower_count": 1,
    "lender_count": 0,
    "bonus_credit_eligibility": true,
    "tags": [ ]

},
{

    "id": 834289,
    "name": "Elizabeth",
    "description": 

{

    "languages": 

    [
        "es",
        "en"
    ]

},
"status": "funded",
"funded_amount": 300,
"image":
{

    "id": 1805862,
    "template_id": 1

},
"activity": "Food",
"sector": "Food",
"use": "to buy a freezer to refrigerate her ice-cream as using the one in the house takes up too much space.",
"location":
{

    "country_code": "CO",
    "country": "Colombia",
    "town": "Santa Fe de Antioquia",
    "geo": 

                {
                    "level": "country",
                    "pairs": "4 -72",
                    "type": "point"
                }
            },
            "partner_id": 177,
            "posted_date": "2015-02-01T23:10:02Z",
            "planned_expiration_date": "2015-03-03T23:10:02Z",
            "loan_amount": 300,
            "borrower_count": 1,
            "lender_count": 9,
            "bonus_credit_eligibility": true,
            "tags": [ ]
        }
    ]

}